<?xml version="1.0" encoding="UTF-8"?>
<svg width="10px" height="20px" viewBox="0 0 10 20" version="1.1" xmlns="http://www.w3.org/2000/svg" xmlns:xlink="http://www.w3.org/1999/xlink">
    <!-- Generator: Sketch 42 (36781) - http://www.bohemiancoding.com/sketch -->
    <title>facebook</title>
    <desc>Created with Sketch.</desc>
    <defs>
        <polygon id="path-1" points="1.41598933e-15 20 10 20 10 0 0 0 0 20"></polygon>
    </defs>
    <g id="Phase-2" stroke="none" stroke-width="1" fill="none" fill-rule="evenodd">
        <g id="Home" transform="translate(-1396.000000, -866.000000)">
            <g id="Header" transform="translate(29.000000, 461.000000)">
                <g id="Social-Icons" transform="translate(1361.000000, 405.000000)">
                    <g id="facebook" transform="translate(6.000000, 0.000000)">
                        <mask id="mask-2" fill="white">
                            <use xlink:href="#path-1"></use>
                        </mask>
                        <g id="Clip-2"></g>
                        <path d="M2.16144596,3.87336308 L2.16144596,6.6269732 L0,6.6269732 L0,9.99409524 L2.16144596,9.99409524 L2.16144596,20 L6.60151614,20 L6.60151614,9.99437424 L9.58101293,9.99437424 C9.58101293,9.99437424 9.86005367,8.37986575 9.99531685,6.61455769 L6.61830572,6.61455769 L6.61830572,4.31231859 C6.61830572,3.96822312 7.10240843,3.5053666 7.58088141,3.5053666 L10,3.5053666 L10,0 L6.71082275,0 C2.05169096,-0.000232500086 2.16144596,3.37023755 2.16144596,3.87336308 Z" id="Fill-1" fill="#FFFFFF" mask="url(#mask-2)"></path>
                    </g>
                </g>
            </g>
        </g>
    </g>
</svg>
